[gd_scene load_steps=2 format=3 uid="uid://dfnepdloic5td"]

[ext_resource type="Script" path="res://scripts/input_settings.gd" id="1_0r0ks"]

[node name="InputSettings" type="Control"]
layout_mode = 3
anchors_preset = 15
anchor_right = 1.0
anchor_bottom = 1.0
grow_horizontal = 2
grow_vertical = 2
script = ExtResource("1_0r0ks")

[node name="Label" type="Label" parent="."]
layout_mode = 0
offset_left = 130.0
offset_top = 75.0
offset_right = 230.0
offset_bottom = 101.0
text = "Input settings"

[node name="BackButton" type="Button" parent="."]
layout_mode = 0
offset_right = 12.0
offset_bottom = 10.0
text = "back"
