# Blender MTL File: 'ship.blend'
# Material Count: 5

newmtl Aluminium
Ns 225.000000
Ka 1.000000 1.000000 1.000000
Kd 0.015856 0.169376 0.486896
Ks 0.500000 0.500000 0.500000
Ke 0.000000 0.000000 0.000000
Ni 1.450000
d 1.000000
illum 2

newmtl Glass
Ns 225.000000
Ka 1.000000 1.000000 1.000000
Kd 0.220186 0.796576 0.796576
Ks 0.500000 0.500000 0.500000
Ke 0.000000 0.000000 0.000000
Ni 1.450000
d 1.000000
illum 2

newmtl Gun_metal
Ns 225.000000
Ka 1.000000 1.000000 1.000000
Kd 0.002502 0.004152 0.029081
Ks 0.500000 0.500000 0.500000
Ke 0.000000 0.000000 0.000000
Ni 1.450000
d 1.000000
illum 2

newmtl Metal
Ns 225.000000
Ka 1.000000 1.000000 1.000000
Kd 0.005926 0.007858 0.066806
Ks 0.500000 0.500000 0.500000
Ke 0.000000 0.000000 0.000000
Ni 1.450000
d 1.000000
illum 2

newmtl Rought_metal
Ns 299.556208
Ka 0.260000 0.260000 0.260000
Kd 0.051762 0.085658 0.201813
Ks 0.450000 0.450000 0.450000
Ke 0.000000 0.000000 0.000000
Ni 1.450000
d 1.000000
illum 3
