[gd_resource type="ShaderMaterial" load_steps=2 format=3 uid="uid://dk2b1xx474xub"]

[ext_resource type="Shader" path="res://materials/shaders/megabatar.gdshader" id="1_sde4a"]

[resource]
render_priority = 0
shader = ExtResource("1_sde4a")
