[gd_resource type="StandardMaterial3D" load_steps=3 format=3 uid="uid://cd7j04t6euull"]

[ext_resource type="Texture2D" uid="uid://cndnj5b1emcu" path="res://assets/textures/Plastic004_1K-JPG/Plastic004_1K-JPG_Color.jpg" id="1_3qo5k"]
[ext_resource type="Texture2D" uid="uid://d2se4mc3j7i01" path="res://assets/textures/Plastic004_1K-JPG/Plastic004_1K-JPG_Roughness.jpg" id="2_kxhxh"]

[resource]
albedo_texture = ExtResource("1_3qo5k")
roughness_texture = ExtResource("2_kxhxh")
uv1_triplanar = true
