[gd_resource type="StandardMaterial3D" load_steps=5 format=3 uid="uid://cunhl5hcq1a8u"]

[ext_resource type="Texture2D" uid="uid://bkdnuvqgahcu8" path="res://assets/textures/rocks/Rock035_1K-JPG_Color.jpg" id="1_tbcoa"]
[ext_resource type="Texture2D" uid="uid://clrj1gl47e22v" path="res://assets/textures/rocks/Rock035_1K-JPG_NormalDX.jpg" id="2_4ikds"]
[ext_resource type="Texture2D" uid="uid://c8me8k5fd4qww" path="res://assets/textures/rocks/Rock035_1K-JPG_NormalGL.jpg" id="3_ux3vo"]
[ext_resource type="Texture2D" uid="uid://dqojykr50uhr5" path="res://assets/textures/rocks/Rock035_1K-JPG_Roughness.jpg" id="4_kfyxi"]

[resource]
albedo_texture = ExtResource("1_tbcoa")
roughness_texture = ExtResource("4_kfyxi")
normal_enabled = true
normal_scale = -1.0
normal_texture = ExtResource("3_ux3vo")
heightmap_scale = 0.091
heightmap_texture = ExtResource("2_4ikds")
uv1_scale = Vector3(0.03, 0.03, 0.03)
uv1_triplanar = true
